{
  "type": "service_account",
  "project_id": "krepta-ios",
  "private_key_id": "083684b3431ccebce53b8cb4d70f38a3c14aa1ce",
  "private_key": "-----BEGIN PRIVATE KEY-----\nMIIEvQIBADANBgkqhkiG9w0BAQEFAASCBKcwggSjAgEAAoIBAQCaHNdflh51d6sE\n5tfz1rs8s6mhuuDHVpVlbctf6JnV2VR4z43FFa+q/rq49rXEFZRPJCBS+kmxiLcG\nsy4AxpEuc3XiAEIVFtXLHtboyN1GvN+t9NLES4YKzh8xSmkUGF55dfMh45+45K00\n4Wk0b+OMRUGGR6MXl23JhJWBC/Qi33RqpnrJFJb57+x3A7tvddROnhyGw2V85ShY\n+NIgBYuxeeKs8my0RB2buoktHSawcQvNSJPmvsOa7hgLAomKabx0t07WwZx77gSe\ny6jGpYBVuN4bM5uSFqE1uZgoQjgHEWX8K3xouM0r4i0ZjV1alfkc3vCgbGwg8ftN\nHzKws3CRAgMBAAECggEAP6qrlSsc4TVzWv6M94jd6ElmylA8XU2ZQYJW0wPyTaTP\nn2tLa8C2RmOeuxv84olxsDJCAlWxDR1oU2XBmwNtZe3AJQIrSrAY2aWfbiLRO1B6\n7dAnJH343czimQffGjSpDu+Z5oW1bfpWzfJTdpzEuiXAWJuOtofSDL7vzpSkIqVe\noeY1hrUZ15ZI7uZ++EpqZn1REM3WdGAFwjQMBT3e2TLq3Px2A+S5UWM98VQ85PiX\n1Y0jmQ5yR3RpGnOlMBwXgDyLTgRmCW49Nc1ZplL51uPaKE1YBkvftS3UvEQvcqsK\n+OaWK89pe1sO/0E7xKYUaq63CptZUJIU5UtlADeL2wKBgQDOo5MlGAjcv/k0Gm1F\neorGFUTMgL/lwIA3WqA2U4vy+kgiCvLLpGWF1ltnvW3o0MN1Xf9F28UaK0T8Txgy\n5GvlvXwEP10wNK+ibVZ98eGGqbhpX+g+QeJ8aWbqwoo6rji92GC1ZyjXO0J8tc53\nmbuPDN5IWdcIleg9LOPen7rALwKBgQC+7SsGosbDmrlrsN1Dk19qoejGJNH7vcoI\nTb17N6rEuZ383VP8Q+26m7rADyq7UjiG6Y3kkiO/1kEnu/cMx80oFykt3rs1cYB/\nwoMkkLWLeHaem6u7E4xeAyBER+R2BxEUnNNFuTfmXn2F+q9FsFhzB0nGFK8KxGen\naRZoMh3rPwKBgQCS7I+FQm+atgz01Q1450agzSKb3beUHqmLsi5UMldBrl93hR1Z\nWkytOtrHClOJxFYVr34AJ+EfWEC2vW5RUUS+l1oEkyEpU2zGKsPizQcz/p0Wn5C8\nI5BsMW1x4lzymEnUAnPQx8asMoB1t7dUJsTLU7UA8JAKlLwKM07aTew1FQKBgDI7\nvlVJoJg4bk6qQx0TekhY/yCa8XCVt8FFivQPamvGFo5AQWefC75MWO9NTkXo1RyR\n+JZJ6QQBQDVPHCoNq6m/pkL+Vi0yhseWiuCk/k8Ky9LhTGa1NvpJQkUU0URIibLt\nrBytJcsD02zbzx+7zRm+sideq8teb5M5b/7MKNkLAoGAHasG/Tb4zfHbxxjR/+ft\nV0cEgrK0boBiEWRRiM0PbertahA4O2MJt6l8BkSdFnn9VYlkan6JnPB1ykOYzqgU\nB1hMovObMj2NmKgbD2kqxJOCTKI/uOLOZGH0JTr38/Raf9hWGL2bkVLfGmrCeEEk\nvD1JE/dWv43Jvw/wqVDLqi4=\n-----END PRIVATE KEY-----\n",
  "client_email": "firebase-crashreporting-jnwuj@krepta-ios.iam.gserviceaccount.com",
  "client_id": "102320726162866808281",
  "auth_uri": "https://accounts.google.com/o/oauth2/auth",
  "token_uri": "https://accounts.google.com/o/oauth2/token",
  "auth_provider_x509_cert_url": "https://www.googleapis.com/oauth2/v1/certs",
  "client_x509_cert_url": "https://www.googleapis.com/robot/v1/metadata/x509/firebase-crashreporting-jnwuj%40krepta-ios.iam.gserviceaccount.com"
}
